%YAML 1.1
%TAG !u! tag:unity3d.com,2011:
--- !u!1045 &1
EditorBuildSettings:
  m_ObjectHideFlags: 0
  serializedVersion: 2
  m_Scenes:
  - enabled: 1
    path: Assets/Scenes/FinalScenes/GameOfLifeFinal.unity
    guid: 0914d911622ae8e409789e44b38011bc
  m_configObjects: {}
